STT 301: Logistic Regression
…
Part 1

Data analysis

In January 1986, the NASA space shuttle Challenger exploded 73 seconds into its flight killing all seven crew members. An investigation was launched into the cause of the crash and attention focused on the rubber o-ring seals in the rocket boosters. At lower temperatures, rubber becomes more brittle and is a less effective sealant.

In the 23 previous NASA shuttle missions for which data exists, some evidence of damage due to blow by and erosion was recorded on the o-rings. Each shuttle had two boosters, each with three o-rings. For each mission, we know the number of o-rings, out of six, showing some damage and the launch temperature.

The data orings is in the faraway package. Lets load the data, convert it to a tibble, look at the data, and examine a plot of the temperature versus the proportion of damaged o-rings.

data(orings)
orings <- as_tibble(orings)
orings

# A tibble: 23 x 2
    temp damage
 * <dbl>  <dbl>
 1    53      5
 2    57      1
 3    58      1
 4    63      1
 5    66      0
 6    67      0
 7    67      0
 8    67      0
 9    68      0
10    69      0
# ... with 13 more rows
…
